{
    "KPlugin": {
        "Description": "Configure file manager view modes",
        "Description[ar]": "اضبط أوضاع العرض في مدير الملفّات",
        "Description[az]": "Fayl meneceri baxış rejimlərini tənzimləyin",
        "Description[bg]": "Конфигуриране на режимите за изглед на файловия мениджър",
        "Description[ca@valencia]": "Configura els modes de vista del gestor de fitxers",
        "Description[ca]": "Configura els modes de vista del gestor de fitxers",
        "Description[cs]": "Nastavení režimů pohledu správce souborů",
        "Description[da]": "Indstil filhåndteringens visningstilstande",
        "Description[de]": "Dateiverwaltungs-Ansichten einrichten",
        "Description[en_GB]": "Configure file manager view modes",
        "Description[es]": "Configurar los modos de vistas del gestor de archivos",
        "Description[eu]": "Konfiguratu fitxategi-kudeatzailearen ikuspegi moduak",
        "Description[fi]": "Tiedostonhallinnan näkymäasetukset",
        "Description[fr]": "Configurer les modes d'affichage du gestionnaire de fichiers",
        "Description[ia]": "Configura le modos de vista del gerente de file",
        "Description[id]": "Konfigurasikan mode tampilan pengelola file",
        "Description[is]": "Stilla skoðunarhami í skráastjóra",
        "Description[it]": "Configura le viste del gestore dei file",
        "Description[ka]": "ფაილების მმართველის ხედის რეჟიმების მორგება",
        "Description[ko]": "파일 관리자 보기 모드 설정",
        "Description[nl]": "Bestandsbeheerderweergavemodussen configureren",
        "Description[nn]": "Set opp visingsmodusane i filhandsamaren",
        "Description[pl]": "Ustawienia trybów widoku zarządzania plikami",
        "Description[pt]": "Configurar os modos de visualização do gestor de ficheiros",
        "Description[pt_BR]": "Configura os modos de exibição do gerenciador de arquivos",
        "Description[ro]": "Configurează regimurile de vizualizare ale gestionarului de fișiere",
        "Description[ru]": "Настройка режимов просмотра папок в диспетчере файлов",
        "Description[sk]": "Nastavenie režimov zobrazenia správcu súborov",
        "Description[sl]": "Postavi načine prikaza upravljalnika datotek",
        "Description[sv]": "Anpassa filhanterarens visningslägen",
        "Description[ta]": "கோப்பு உலாவியின் காட்சிமுறைகளை அமையுங்கள்",
        "Description[tr]": "Dosya yöneticisi görünüm kiplerini yapılandır",
        "Description[uk]": "Налаштувати режими перегляду менеджера файлів",
        "Description[vi]": "Cấu hình các chế độ xem trình quản lí tệp",
        "Description[x-test]": "xxConfigure file manager view modesxx",
        "Description[zh_CN]": "配置文件管理器视图模式",
        "Icon": "preferences-desktop-icons",
        "Name": "View Modes",
        "Name[ar]": "أوضاع المنظور",
        "Name[az]": "Baxış rejimləri",
        "Name[bg]": "Режими на преглед",
        "Name[ca@valencia]": "Modes de vista",
        "Name[ca]": "Modes de vista",
        "Name[cs]": "Režimy pohledu",
        "Name[da]": "Visningstilstande",
        "Name[de]": "Ansichts-Modi",
        "Name[el]": "Λειτουργίες Προβολής",
        "Name[en_GB]": "View Modes",
        "Name[es]": "Modos de vistas",
        "Name[et]": "Vaaterežiimid",
        "Name[eu]": "Ikuspegi moduak",
        "Name[fi]": "Näkymät",
        "Name[fr]": "Modes d'affichage",
        "Name[gl]": "Modos de vista",
        "Name[hi]": "दृश्य मोड्स",
        "Name[hu]": "Nézetmódok",
        "Name[ia]": "Modos de vista",
        "Name[id]": "Mode Tampilan",
        "Name[is]": "Skoðunarhamir",
        "Name[it]": "Viste",
        "Name[ja]": "表示モード",
        "Name[ka]": "ნახვის რეჟიმები",
        "Name[ko]": "보기 모드",
        "Name[lt]": "Rodinio veiksenos",
        "Name[lv]": "Skata režīmi",
        "Name[ml]": "അവതരണ രീതികള്‍",
        "Name[my]": "မြင်ကွင်းထုံးနည်းများ",
        "Name[nb]": "Visningsmåter",
        "Name[nl]": "Weergavemodi",
        "Name[nn]": "Visingsmodusar",
        "Name[pa]": "ਵੇਖਣ ਢੰਗ",
        "Name[pl]": "Tryby widoku",
        "Name[pt]": "Modos de Visualização",
        "Name[pt_BR]": "Modos de exibição",
        "Name[ro]": "Regimuri de vizualizare",
        "Name[ru]": "Режимы просмотра",
        "Name[se]": "Čájehanmodusat",
        "Name[sk]": "Režimy zobrazenia",
        "Name[sl]": "Načini prikaza",
        "Name[sr@ijekavian]": "Режими приказа",
        "Name[sr@ijekavianlatin]": "Režimi prikaza",
        "Name[sr@latin]": "Režimi prikaza",
        "Name[sr]": "Режими приказа",
        "Name[sv]": "Visningslägen",
        "Name[ta]": "காட்சிமுறைகள்",
        "Name[tr]": "Görünüm Kipleri",
        "Name[uk]": "Режими перегляду",
        "Name[vi]": "Các chế độ xem",
        "Name[x-test]": "xxView Modesxx",
        "Name[zh_CN]": "视图模式",
        "Name[zh_TW]": "檢視模式",
        "ServiceTypes": [
            "KCModule"
        ]
    },
    "X-DocPath": "dolphin/configuring-dolphin.html#preferences-dialog-viewmodes",
    "X-KDE-Keywords": "file manager",
    "X-KDE-Keywords[ar]": "مدير ملفّات ملفات الملفّات الملفات",
    "X-KDE-Keywords[ast]": "xestor de ficheros",
    "X-KDE-Keywords[az]": "fayl meneceri",
    "X-KDE-Keywords[ca@valencia]": "gestor de fitxers",
    "X-KDE-Keywords[ca]": "gestor de fitxers",
    "X-KDE-Keywords[cs]": "správce souborů",
    "X-KDE-Keywords[da]": "filhåndtering",
    "X-KDE-Keywords[de]": "Dateiverwaltung",
    "X-KDE-Keywords[el]": "διαχειριστής αρχείων",
    "X-KDE-Keywords[en_GB]": "file manager",
    "X-KDE-Keywords[es]": "gestor de archivos",
    "X-KDE-Keywords[et]": "failihaldur",
    "X-KDE-Keywords[eu]": "Fitxategi-kudeatzailea",
    "X-KDE-Keywords[fi]": "tiedostonhallinta",
    "X-KDE-Keywords[fr]": "gestionnaire de fichiers",
    "X-KDE-Keywords[gl]": "xestor de ficheiros",
    "X-KDE-Keywords[he]": "מנהל קבצים",
    "X-KDE-Keywords[hi]": "फ़ाइल प्रबंधक",
    "X-KDE-Keywords[hu]": "fájlkezelő",
    "X-KDE-Keywords[ia]": "gerente de file",
    "X-KDE-Keywords[id]": "pengelola file",
    "X-KDE-Keywords[is]": "skráastjóri",
    "X-KDE-Keywords[it]": "gestore dei file",
    "X-KDE-Keywords[ja]": "ファイルマネージャ",
    "X-KDE-Keywords[ko]": "파일 관리자",
    "X-KDE-Keywords[lt]": "failų tvarkytuvė",
    "X-KDE-Keywords[lv]": "datņu pārvaldnieks",
    "X-KDE-Keywords[ml]": "ഫയൽ മാനേജർ",
    "X-KDE-Keywords[my]": "ဖိုင်လ်မန်နေဂျာ",
    "X-KDE-Keywords[nb]": "filbehandler",
    "X-KDE-Keywords[nl]": "bestandsbeheerder",
    "X-KDE-Keywords[nn]": "filhandsamar",
    "X-KDE-Keywords[pa]": "ਫਾਇਲ ਮੈਨੇਜਰ",
    "X-KDE-Keywords[pl]": "zarządzanie plikami",
    "X-KDE-Keywords[pt]": "gestor de ficheiros",
    "X-KDE-Keywords[pt_BR]": "gerenciador de arquivos",
    "X-KDE-Keywords[ro]": "gestionar de fișiere",
    "X-KDE-Keywords[ru]": "диспетчер файлов",
    "X-KDE-Keywords[sk]": "správca súborov",
    "X-KDE-Keywords[sl]": "upravljalnik datotek",
    "X-KDE-Keywords[sr@ijekavian]": "file manager,менаџер фајлова",
    "X-KDE-Keywords[sr@ijekavianlatin]": "file manager,menadžer fajlova",
    "X-KDE-Keywords[sr@latin]": "file manager,menadžer fajlova",
    "X-KDE-Keywords[sr]": "file manager,менаџер фајлова",
    "X-KDE-Keywords[sv]": "filhanterare",
    "X-KDE-Keywords[ta]": "file manager,கோப்பு மேலாளர், கோப்பு நிர்வாகி, கோப்பு உலாவி",
    "X-KDE-Keywords[tr]": "dosya yöneticisi",
    "X-KDE-Keywords[uk]": "менеджер,керування,файл,файли",
    "X-KDE-Keywords[vi]": "file manager,trình quản lí tệp",
    "X-KDE-Keywords[x-test]": "xxfile managerxx",
    "X-KDE-Keywords[zh_CN]": "文件管理器",
    "X-KDE-Keywords[zh_TW]": "檔案管理員"
}
